{
    "_": "", 
    "buttons": {
        "C": {
            "action": "hold(menu('Default.menu'), menu('Default.menu'))"
        }
    }, 
    "cpad": {}, 
    "gyro": {}, 
    "is_template": false, 
    "menus": {}, 
    "pad_left": {}, 
    "pad_right": {}, 
    "stick": {}, 
    "trigger_left": {
        "action": "trigger(254, 255, button(Keys.KEY_8))", 
        "name": "Lock On"
    }, 
    "trigger_right": {}, 
    "version": 1.4
}